ds202_lab3
…
Exercise 4

gss[!(gss$party %in% c("Don't know", NA)) &
      !(gss$marital_status %in% c("No answer")),] %>%
  mutate(happy_dummy = ifelse(happiness %in% c("Pretty happy", "Very happy"), 1, 0)) %>%
  group_by(party, marital_status) %>%
  dplyr::summarise(mean_hapiness = mean(happy_dummy)) %>%
  arrange(desc(mean_hapiness))

## `summarise()` regrouping output by 'party' (override with `.groups` argument)

## # A tibble: 45 x 3
## # Groups:   party [9]
##    party              marital_status mean_hapiness
##    <chr>              <chr>                  <dbl>
##  1 Not str republican Married                0.888
##  2 Ind,near rep       Married                0.876
##  3 Not str democrat   Married                0.866
##  4 Strong republican  Married                0.865
##  5 Ind,near dem       Married                0.860
##  6 Other party        Married                0.859
##  7 Strong democrat    Married                0.849
##  8 Not str republican Never married          0.821
##  9 Independent        Married                0.816
## 10 Strong republican  Never married          0.814
## #  with 35 more rows
…
